{
  "project_info": {
    "project_number": "860348112095",
    "firebase_url": "https://duoapp-b507d.firebaseio.com",
    "project_id": "duoapp-b507d",
    "storage_bucket": "duoapp-b507d.appspot.com"
  },
  "client": [
    {
      "client_info": {
        "mobilesdk_app_id": "1:860348112095:android:ba7583d690d3785a",
        "android_client_info": {
          "package_name": "com.mikehendriks.mymovielist"
        }
      },
      "oauth_client": [
        {
          "client_id": "860348112095-ds65gss96dvucsa7st6kfhdvh1e5h9db.apps.googleusercontent.com",
          "client_type": 1,
          "android_info": {
            "package_name": "com.mikehendriks.mymovielist",
            "certificate_hash": "47b79c4ee50cd8e0a923815fa20db5eba0efc56b"
          }
        },
        {
          "client_id": "860348112095-hb8ta3sk3v4je1a77kps549p7rhh6ovo.apps.googleusercontent.com",
          "client_type": 1,
          "android_info": {
            "package_name": "com.mikehendriks.mymovielist",
            "certificate_hash": "5e775ed2b8542f2e9e0c0fde1480581461ddd6a4"
          }
        },
        {
          "client_id": "860348112095-nqdk1tgk8qrbtpeaoa9b8atmqr1pbiem.apps.googleusercontent.com",
          "client_type": 3
        }
      ],
      "api_key": [
        {
          "current_key": "AIzaSyArP6RdnQ9Wk8xdGR5iZ_r6Ez6-MTKHa3E"
        }
      ],
      "services": {
        "analytics_service": {
          "status": 1
        },
        "appinvite_service": {
          "status": 2,
          "other_platform_oauth_client": [
            {
              "client_id": "860348112095-nqdk1tgk8qrbtpeaoa9b8atmqr1pbiem.apps.googleusercontent.com",
              "client_type": 3
            }
          ]
        },
        "ads_service": {
          "status": 2
        }
      }
    }
  ],
  "configuration_version": "1"
}